<?xml version='1.0' encoding='UTF-8'?>
<glyph name="D" format="1">
  <advance width="711"/>
  <unicode hex="0044"/>
  <outline>
    <contour>
      <point x="599" y="695"/>
      <point x="376" y="695" type="curve" smooth="yes"/>
      <point x="149" y="695" type="line"/>
      <point x="26" y="0" type="line"/>
      <point x="253" y="0" type="line" smooth="yes"/>
      <point x="476" y="0"/>
      <point x="645" y="131"/>
      <point x="683" y="345" type="curve" smooth="yes"/>
      <point x="721" y="560"/>
    </contour>
    <contour>
      <point x="269" y="87" type="curve" smooth="yes"/>
      <point x="156" y="87" type="line"/>
      <point x="247" y="603" type="line"/>
      <point x="360" y="603" type="line" smooth="yes"/>
      <point x="524" y="603"/>
      <point x="594" y="504"/>
      <point x="566" y="345" type="curve" smooth="yes"/>
      <point x="538" y="187"/>
      <point x="433" y="87"/>
    </contour>
    <contour>
      <point x="429" y="696" type="move" name="top"/>
    </contour>
  </outline>
  <lib>
    <dict>
      <key>com.schriftgestaltung.Glyphs.lastChange</key>
      <string>2022-04-14 14:39:53 +0000</string>
      <key>com.schriftgestaltung.Glyphs.leftMetricsKey</key>
      <string>H</string>
      <key>com.schriftgestaltung.Glyphs.rightMetricsKey</key>
      <string>O</string>
      <key>com.schriftgestaltung.glyph.userData</key>
      <dict>
        <key>com.schriftgestaltung.Glyphs.ColorIndex</key>
        <integer>4</integer>
        <key>com.typemytype.robofont.guides</key>
        <array>
          <dict>
            <key>angle</key>
            <integer>0</integer>
            <key>isGlobal</key>
            <integer>0</integer>
            <key>magnetic</key>
            <integer>5</integer>
            <key>x</key>
            <integer>122</integer>
            <key>y</key>
            <integer>684</integer>
          </dict>
        </array>
        <key>com.typesupply.AccentFactory.yCoordinates</key>
        <dict>
          <key>bottom</key>
          <dict>
            <key>name</key>
            <string>origin</string>
            <key>type</key>
            <string>glyphMetric</string>
          </dict>
          <key>top</key>
          <dict>
            <key>name</key>
            <string>capHeight</string>
            <key>type</key>
            <string>fontInfo</string>
          </dict>
        </dict>
      </dict>
    </dict>
  </lib>
</glyph>
