<?xml version='1.0' encoding='UTF-8'?>
<glyph name="g_u_e.ss12" format="1">
  <advance width="1441"/>
  <outline>
    <component base="g" identifier="DBF8EFED"/>
    <component base="u" xOffset="420"/>
    <component base="bout-e" xOffset="843"/>
  </outline>
  <lib>
    <dict>
      <key>com.schriftgestaltung.Glyphs.lastChange</key>
      <string>2023-04-03 14:51:42 +0000</string>
      <key>com.schriftgestaltung.Glyphs.leftMetricsKey</key>
      <string>g</string>
      <key>com.schriftgestaltung.Glyphs.rightMetricsKey</key>
      <string>bout-e</string>
      <key>public.markColor</key>
      <string>0.98,0.36,0.67,0.5</string>
      <key>public.objectLibs</key>
      <dict>
        <key>DBF8EFED</key>
        <dict>
          <key>com.schriftgestaltung.alignment</key>
          <integer>-1</integer>
        </dict>
      </dict>
    </dict>
  </lib>
</glyph>
