<?xml version='1.0' encoding='UTF-8'?>
<glyph name="greaterequal" format="1">
  <advance width="549"/>
  <unicode hex="2265"/>
  <outline>
    <contour>
      <point x="70" y="208" type="line"/>
      <point x="219" y="208" type="line"/>
      <point x="484" y="398" type="line"/>
      <point x="286" y="588" type="line"/>
      <point x="137" y="588" type="line"/>
      <point x="342" y="389" type="line"/>
      <point x="345" y="409" type="line"/>
    </contour>
    <contour>
      <point x="433" y="153" type="line"/>
      <point x="64" y="153" type="line"/>
      <point x="49" y="67" type="line"/>
      <point x="418" y="67" type="line"/>
    </contour>
  </outline>
  <lib>
    <dict>
      <key>com.schriftgestaltung.Glyphs.lastChange</key>
      <string>2022-04-14 09:43:24 +0000</string>
      <key>com.schriftgestaltung.glyph.userData</key>
      <dict>
        <key>com.schriftgestaltung.Glyphs.ColorIndex</key>
        <integer>8</integer>
        <key>com.typemytype.robofont.layerData</key>
        <dict>
          <key>b</key>
          <dict>
            <key>anchors</key>
            <array>
            </array>
            <key>components</key>
            <array>
            </array>
            <key>contours</key>
            <array>
              <dict>
                <key>points</key>
                <array>
                  <dict>
                    <key>segmentType</key>
                    <string>line</string>
                    <key>smooth</key>
                    <integer>0</integer>
                    <key>x</key>
                    <integer>89</integer>
                    <key>y</key>
                    <integer>221</integer>
                  </dict>
                  <dict>
                    <key>segmentType</key>
                    <string>line</string>
                    <key>smooth</key>
                    <integer>0</integer>
                    <key>x</key>
                    <integer>365</integer>
                    <key>y</key>
                    <integer>419</integer>
                  </dict>
                  <dict>
                    <key>segmentType</key>
                    <string>line</string>
                    <key>smooth</key>
                    <integer>0</integer>
                    <key>x</key>
                    <integer>89</integer>
                    <key>y</key>
                    <integer>618</integer>
                  </dict>
                  <dict>
                    <key>segmentType</key>
                    <string>line</string>
                    <key>smooth</key>
                    <integer>0</integer>
                    <key>x</key>
                    <integer>49</integer>
                    <key>y</key>
                    <integer>618</integer>
                  </dict>
                  <dict>
                    <key>segmentType</key>
                    <string>line</string>
                    <key>smooth</key>
                    <integer>0</integer>
                    <key>x</key>
                    <integer>356</integer>
                    <key>y</key>
                    <integer>398</integer>
                  </dict>
                  <dict>
                    <key>segmentType</key>
                    <string>line</string>
                    <key>smooth</key>
                    <integer>0</integer>
                    <key>x</key>
                    <integer>356</integer>
                    <key>y</key>
                    <integer>442</integer>
                  </dict>
                  <dict>
                    <key>segmentType</key>
                    <string>line</string>
                    <key>smooth</key>
                    <integer>0</integer>
                    <key>x</key>
                    <integer>49</integer>
                    <key>y</key>
                    <integer>221</integer>
                  </dict>
                </array>
              </dict>
              <dict>
                <key>points</key>
                <array>
                  <dict>
                    <key>segmentType</key>
                    <string>line</string>
                    <key>smooth</key>
                    <integer>0</integer>
                    <key>x</key>
                    <integer>52</integer>
                    <key>y</key>
                    <integer>191</integer>
                  </dict>
                  <dict>
                    <key>segmentType</key>
                    <string>line</string>
                    <key>smooth</key>
                    <integer>0</integer>
                    <key>x</key>
                    <integer>52</integer>
                    <key>y</key>
                    <integer>180</integer>
                  </dict>
                  <dict>
                    <key>segmentType</key>
                    <string>line</string>
                    <key>smooth</key>
                    <integer>0</integer>
                    <key>x</key>
                    <integer>372</integer>
                    <key>y</key>
                    <integer>180</integer>
                  </dict>
                  <dict>
                    <key>segmentType</key>
                    <string>line</string>
                    <key>smooth</key>
                    <integer>0</integer>
                    <key>x</key>
                    <integer>372</integer>
                    <key>y</key>
                    <integer>191</integer>
                  </dict>
                </array>
              </dict>
            </array>
            <key>lib</key>
            <dict>
            </dict>
            <key>name</key>
            <string>greaterequal</string>
            <key>unicodes</key>
            <array>
            </array>
            <key>width</key>
            <integer>392</integer>
          </dict>
        </dict>
      </dict>
    </dict>
  </lib>
</glyph>
