<?xml version='1.0' encoding='UTF-8'?>
<glyph name="iacute" format="1">
  <advance width="264"/>
  <unicode hex="00ED"/>
  <outline>
    <component base="dotlessi"/>
    <component base="acute" xOffset="4"/>
  </outline>
  <lib>
    <dict>
      <key>com.schriftgestaltung.Glyphs.lastChange</key>
      <string>2022-04-15 09:31:27 +0000</string>
      <key>com.schriftgestaltung.glyph.userData</key>
      <dict>
        <key>com.schriftgestaltung.Glyphs.ColorIndex</key>
        <integer>4</integer>
      </dict>
    </dict>
  </lib>
</glyph>
