<?xml version='1.0' encoding='UTF-8'?>
<glyph name="omacron" format="1">
  <advance width="635"/>
  <unicode hex="014D"/>
  <outline>
    <component base="o"/>
    <component base="macron" xOffset="127" yOffset="9"/>
  </outline>
  <lib>
    <dict>
      <key>com.schriftgestaltung.Glyphs.lastChange</key>
      <string>2022-04-14 10:02:01 +0000</string>
      <key>com.schriftgestaltung.glyph.userData</key>
      <dict>
        <key>com.schriftgestaltung.Glyphs.ColorIndex</key>
        <integer>8</integer>
      </dict>
    </dict>
  </lib>
</glyph>
