<?xml version='1.0' encoding='UTF-8'?>
<glyph name="otilde" format="1">
  <advance width="635"/>
  <unicode hex="00F5"/>
  <outline>
    <component base="o"/>
    <component base="tilde" xOffset="147" yOffset="9"/>
  </outline>
  <lib>
    <dict>
      <key>com.schriftgestaltung.Glyphs.lastChange</key>
      <string>2022-04-15 09:18:27 +0000</string>
      <key>com.schriftgestaltung.glyph.userData</key>
      <dict>
        <key>com.schriftgestaltung.Glyphs.ColorIndex</key>
        <integer>4</integer>
      </dict>
    </dict>
  </lib>
</glyph>
