<?xml version='1.0' encoding='UTF-8'?>
<glyph name="a_u_l_a" format="1">
  <advance width="2485"/>
  <outline>
    <contour>
      <point x="1418" y="143" type="curve" smooth="yes"/>
      <point x="1393" y="143"/>
      <point x="1377" y="154"/>
      <point x="1377" y="174" type="curve" smooth="yes"/>
      <point x="1377" y="201"/>
      <point x="1404" y="223"/>
      <point x="1442" y="223" type="curve" smooth="yes"/>
      <point x="1512" y="223" type="line"/>
      <point x="1512" y="221" type="line" smooth="yes"/>
      <point x="1512" y="179"/>
      <point x="1462" y="143"/>
    </contour>
    <contour>
      <point x="1764" y="404" type="line"/>
      <point x="1543" y="404" type="line"/>
      <point x="1531" y="328" type="line"/>
      <point x="1434" y="328" type="line" smooth="yes"/>
      <point x="1274" y="328"/>
      <point x="1146" y="252"/>
      <point x="1146" y="128" type="curve" smooth="yes"/>
      <point x="1146" y="35"/>
      <point x="1211" y="-11"/>
      <point x="1295" y="-11" type="curve" smooth="yes"/>
      <point x="1371" y="-11"/>
      <point x="1452" y="20"/>
      <point x="1488" y="76" type="curve"/>
      <point x="1475" y="0" type="line"/>
      <point x="1696" y="0" type="line"/>
    </contour>
    <component base="agrave" identifier="EC63D8E6"/>
    <component base="l" xOffset="818" identifier="C97A4AAE"/>
    <component base="a" xOffset="1211" yOffset="392" identifier="AA013EFE"/>
    <component base="u" xOffset="1861" yOffset="392" identifier="866AC5FA"/>
  </outline>
  <lib>
    <dict>
      <key>com.schriftgestaltung.Glyphs.lastChange</key>
      <string>2023-04-17 10:47:54 +0000</string>
      <key>com.schriftgestaltung.Glyphs.leftMetricsKey</key>
      <string>a</string>
      <key>com.schriftgestaltung.Glyphs.rightMetricsKey</key>
      <string>u</string>
      <key>com.schriftgestaltung.guides</key>
      <array>
        <dict>
          <key>angle</key>
          <integer>0</integer>
          <key>x</key>
          <integer>1375</integer>
          <key>y</key>
          <integer>956</integer>
        </dict>
      </array>
      <key>public.markColor</key>
      <string>0.04,0.57,0.04,0.5</string>
      <key>public.objectLibs</key>
      <dict>
        <key>866AC5FA</key>
        <dict>
          <key>com.schriftgestaltung.alignment</key>
          <integer>-1</integer>
        </dict>
        <key>AA013EFE</key>
        <dict>
          <key>com.schriftgestaltung.alignment</key>
          <integer>-1</integer>
        </dict>
        <key>C97A4AAE</key>
        <dict>
          <key>com.schriftgestaltung.alignment</key>
          <integer>-1</integer>
        </dict>
        <key>EC63D8E6</key>
        <dict>
          <key>com.schriftgestaltung.alignment</key>
          <integer>-1</integer>
        </dict>
      </dict>
    </dict>
  </lib>
</glyph>
