<?xml version='1.0' encoding='UTF-8'?>
<glyph name="Idotaccent" format="1">
  <advance width="322"/>
  <unicode hex="0130"/>
  <outline>
    <component base="I"/>
    <component base="dotaccent" xOffset="91" yOffset="147"/>
  </outline>
  <lib>
    <dict>
      <key>com.schriftgestaltung.Glyphs.lastChange</key>
      <string>2022-04-14 13:59:26 +0000</string>
      <key>com.schriftgestaltung.glyph.userData</key>
      <dict>
        <key>com.schriftgestaltung.Glyphs.ColorIndex</key>
        <integer>8</integer>
      </dict>
    </dict>
  </lib>
</glyph>
