<?xml version='1.0' encoding='UTF-8'?>
<glyph name="perthousand" format="1">
  <advance width="1284"/>
  <unicode hex="2030"/>
  <outline>
    <contour>
      <point x="87" y="662"/>
      <point x="65" y="540" type="curve" smooth="yes"/>
      <point x="44" y="419"/>
      <point x="112" y="360"/>
      <point x="215" y="360" type="curve" smooth="yes"/>
      <point x="317" y="360"/>
      <point x="404" y="419"/>
      <point x="425" y="540" type="curve" smooth="yes"/>
      <point x="447" y="662"/>
      <point x="380" y="721"/>
      <point x="278" y="721" type="curve" smooth="yes"/>
      <point x="175" y="721"/>
    </contour>
    <contour>
      <point x="232" y="592"/>
      <point x="254" y="592" type="curve" smooth="yes"/>
      <point x="277" y="592"/>
      <point x="288" y="575"/>
      <point x="281" y="540" type="curve" smooth="yes"/>
      <point x="275" y="506"/>
      <point x="258" y="489"/>
      <point x="235" y="489" type="curve" smooth="yes"/>
      <point x="213" y="489"/>
      <point x="204" y="506"/>
      <point x="210" y="540" type="curve" smooth="yes"/>
      <point x="217" y="575"/>
    </contour>
    <contour>
      <point x="605" y="711" type="line"/>
      <point x="106" y="0" type="line"/>
      <point x="318" y="0" type="line"/>
      <point x="817" y="711" type="line"/>
    </contour>
    <contour>
      <point x="519" y="293"/>
      <point x="497" y="171" type="curve" smooth="yes"/>
      <point x="476" y="49"/>
      <point x="544" y="-10"/>
      <point x="646" y="-10" type="curve" smooth="yes"/>
      <point x="749" y="-10"/>
      <point x="835" y="49"/>
      <point x="856" y="171" type="curve" smooth="yes"/>
      <point x="878" y="293"/>
      <point x="812" y="352"/>
      <point x="709" y="352" type="curve" smooth="yes"/>
      <point x="607" y="352"/>
    </contour>
    <contour>
      <point x="663" y="223"/>
      <point x="686" y="223" type="curve" smooth="yes"/>
      <point x="708" y="223"/>
      <point x="718" y="205"/>
      <point x="712" y="171" type="curve" smooth="yes"/>
      <point x="706" y="136"/>
      <point x="689" y="119"/>
      <point x="667" y="119" type="curve" smooth="yes"/>
      <point x="644" y="119"/>
      <point x="635" y="136"/>
      <point x="641" y="171" type="curve" smooth="yes"/>
      <point x="647" y="205"/>
    </contour>
    <contour>
      <point x="906" y="293"/>
      <point x="884" y="171" type="curve" smooth="yes"/>
      <point x="863" y="49"/>
      <point x="931" y="-10"/>
      <point x="1034" y="-10" type="curve" smooth="yes"/>
      <point x="1136" y="-10"/>
      <point x="1223" y="49"/>
      <point x="1244" y="171" type="curve" smooth="yes"/>
      <point x="1266" y="293"/>
      <point x="1199" y="352"/>
      <point x="1097" y="352" type="curve" smooth="yes"/>
      <point x="994" y="352"/>
    </contour>
    <contour>
      <point x="1051" y="223"/>
      <point x="1073" y="223" type="curve" smooth="yes"/>
      <point x="1096" y="223"/>
      <point x="1106" y="205"/>
      <point x="1100" y="171" type="curve" smooth="yes"/>
      <point x="1094" y="136"/>
      <point x="1077" y="119"/>
      <point x="1054" y="119" type="curve" smooth="yes"/>
      <point x="1032" y="119"/>
      <point x="1023" y="136"/>
      <point x="1029" y="171" type="curve" smooth="yes"/>
      <point x="1035" y="205"/>
    </contour>
  </outline>
  <lib>
    <dict>
      <key>com.schriftgestaltung.Glyphs.lastChange</key>
      <string>2022-04-14 09:43:24 +0000</string>
      <key>com.schriftgestaltung.glyph.userData</key>
      <dict>
        <key>com.schriftgestaltung.Glyphs.ColorIndex</key>
        <integer>4</integer>
      </dict>
    </dict>
  </lib>
</glyph>
