<?xml version='1.0' encoding='UTF-8'?>
<glyph name="z" format="1">
  <advance width="518"/>
  <unicode hex="007A"/>
  <outline>
    <contour>
      <point x="507" y="390" type="line"/>
      <point x="538" y="564" type="line"/>
      <point x="73" y="564" type="line"/>
      <point x="40" y="380" type="line"/>
      <point x="252" y="380" type="line"/>
      <point x="1" y="174" type="line"/>
      <point x="-30" y="0" type="line"/>
      <point x="448" y="0" type="line"/>
      <point x="481" y="184" type="line"/>
      <point x="246" y="184" type="line"/>
    </contour>
    <contour>
      <point x="316" y="564" type="move" name="top"/>
    </contour>
  </outline>
  <lib>
    <dict>
      <key>com.schriftgestaltung.Glyphs.lastChange</key>
      <string>2022-04-15 09:31:01 +0000</string>
      <key>com.schriftgestaltung.glyph.userData</key>
      <dict>
        <key>com.schriftgestaltung.Glyphs.ColorIndex</key>
        <integer>4</integer>
        <key>com.typesupply.AccentFactory.yCoordinates</key>
        <dict>
          <key>bottom</key>
          <dict>
            <key>name</key>
            <string>origin</string>
            <key>type</key>
            <string>glyphMetric</string>
          </dict>
          <key>top</key>
          <dict>
            <key>name</key>
            <string>xHeight</string>
            <key>type</key>
            <string>fontInfo</string>
          </dict>
        </dict>
      </dict>
    </dict>
  </lib>
</glyph>
