<?xml version='1.0' encoding='UTF-8'?>
<glyph name="b" format="1">
  <advance width="678"/>
  <unicode hex="0062"/>
  <outline>
    <contour>
      <point x="225" y="519"/>
      <point x="189" y="469" type="curve"/>
      <point x="189" y="740" type="line"/>
      <point x="75" y="740" type="line"/>
      <point x="75" y="0" type="line"/>
      <point x="189" y="0" type="line"/>
      <point x="189" y="80" type="line"/>
      <point x="225" y="32"/>
      <point x="290" y="-9"/>
      <point x="381" y="-9" type="curve" smooth="yes"/>
      <point x="526" y="-9"/>
      <point x="640" y="108"/>
      <point x="640" y="278" type="curve" smooth="yes"/>
      <point x="640" y="448"/>
      <point x="527" y="560"/>
      <point x="381" y="560" type="curve" smooth="yes"/>
      <point x="294" y="560"/>
    </contour>
    <contour>
      <point x="524" y="397"/>
      <point x="524" y="278" type="curve" smooth="yes"/>
      <point x="524" y="159"/>
      <point x="442" y="90"/>
      <point x="356" y="90" type="curve" smooth="yes"/>
      <point x="271" y="90"/>
      <point x="189" y="157"/>
      <point x="189" y="276" type="curve" smooth="yes"/>
      <point x="189" y="394"/>
      <point x="271" y="461"/>
      <point x="356" y="461" type="curve" smooth="yes"/>
      <point x="442" y="461"/>
    </contour>
  </outline>
  <lib>
    <dict>
      <key>com.schriftgestaltung.Glyphs.lastChange</key>
      <string>2022-02-17 13:53:55 +0000</string>
      <key>com.schriftgestaltung.Glyphs.leftMetricsKey</key>
      <string>l</string>
      <key>com.schriftgestaltung.Glyphs.rightMetricsKey</key>
      <string>o</string>
      <key>com.schriftgestaltung.glyph.userData</key>
      <dict>
        <key>com.schriftgestaltung.Glyphs.ColorIndex</key>
        <integer>4</integer>
        <key>com.typemytype.robofont.layerData</key>
        <dict>
          <key>b</key>
          <dict>
            <key>anchors</key>
            <array>
            </array>
            <key>components</key>
            <array>
            </array>
            <key>contours</key>
            <array>
              <dict>
                <key>points</key>
                <array>
                  <dict>
                    <key>segmentType</key>
                    <string>curve</string>
                    <key>smooth</key>
                    <integer>0</integer>
                    <key>x</key>
                    <integer>105</integer>
                    <key>y</key>
                    <integer>398</integer>
                  </dict>
                  <dict>
                    <key>segmentType</key>
                    <string>line</string>
                    <key>smooth</key>
                    <integer>0</integer>
                    <key>x</key>
                    <integer>105</integer>
                    <key>y</key>
                    <integer>740</integer>
                  </dict>
                  <dict>
                    <key>segmentType</key>
                    <string>line</string>
                    <key>smooth</key>
                    <integer>0</integer>
                    <key>x</key>
                    <integer>85</integer>
                    <key>y</key>
                    <integer>740</integer>
                  </dict>
                  <dict>
                    <key>segmentType</key>
                    <string>line</string>
                    <key>smooth</key>
                    <integer>0</integer>
                    <key>x</key>
                    <integer>85</integer>
                    <key>y</key>
                    <integer>0</integer>
                  </dict>
                  <dict>
                    <key>segmentType</key>
                    <string>line</string>
                    <key>smooth</key>
                    <integer>0</integer>
                    <key>x</key>
                    <integer>105</integer>
                    <key>y</key>
                    <integer>0</integer>
                  </dict>
                  <dict>
                    <key>segmentType</key>
                    <string>line</string>
                    <key>smooth</key>
                    <integer>0</integer>
                    <key>x</key>
                    <integer>105</integer>
                    <key>y</key>
                    <integer>140</integer>
                  </dict>
                  <dict>
                    <key>smooth</key>
                    <integer>0</integer>
                    <key>x</key>
                    <integer>137</integer>
                    <key>y</key>
                    <integer>60</integer>
                  </dict>
                  <dict>
                    <key>smooth</key>
                    <integer>0</integer>
                    <key>x</key>
                    <integer>223</integer>
                    <key>y</key>
                    <integer>-12</integer>
                  </dict>
                  <dict>
                    <key>segmentType</key>
                    <string>curve</string>
                    <key>smooth</key>
                    <integer>1</integer>
                    <key>x</key>
                    <integer>342</integer>
                    <key>y</key>
                    <integer>-12</integer>
                  </dict>
                  <dict>
                    <key>smooth</key>
                    <integer>0</integer>
                    <key>x</key>
                    <integer>498</integer>
                    <key>y</key>
                    <integer>-12</integer>
                  </dict>
                  <dict>
                    <key>smooth</key>
                    <integer>0</integer>
                    <key>x</key>
                    <integer>611</integer>
                    <key>y</key>
                    <integer>108</integer>
                  </dict>
                  <dict>
                    <key>segmentType</key>
                    <string>curve</string>
                    <key>smooth</key>
                    <integer>1</integer>
                    <key>x</key>
                    <integer>611</integer>
                    <key>y</key>
                    <integer>278</integer>
                  </dict>
                  <dict>
                    <key>smooth</key>
                    <integer>0</integer>
                    <key>x</key>
                    <integer>611</integer>
                    <key>y</key>
                    <integer>448</integer>
                  </dict>
                  <dict>
                    <key>smooth</key>
                    <integer>0</integer>
                    <key>x</key>
                    <integer>498</integer>
                    <key>y</key>
                    <integer>552</integer>
                  </dict>
                  <dict>
                    <key>segmentType</key>
                    <string>curve</string>
                    <key>smooth</key>
                    <integer>1</integer>
                    <key>x</key>
                    <integer>342</integer>
                    <key>y</key>
                    <integer>552</integer>
                  </dict>
                  <dict>
                    <key>smooth</key>
                    <integer>0</integer>
                    <key>x</key>
                    <integer>223</integer>
                    <key>y</key>
                    <integer>552</integer>
                  </dict>
                  <dict>
                    <key>smooth</key>
                    <integer>0</integer>
                    <key>x</key>
                    <integer>138</integer>
                    <key>y</key>
                    <integer>480</integer>
                  </dict>
                </array>
              </dict>
              <dict>
                <key>points</key>
                <array>
                  <dict>
                    <key>segmentType</key>
                    <string>curve</string>
                    <key>smooth</key>
                    <integer>1</integer>
                    <key>x</key>
                    <integer>590</integer>
                    <key>y</key>
                    <integer>278</integer>
                  </dict>
                  <dict>
                    <key>smooth</key>
                    <integer>0</integer>
                    <key>x</key>
                    <integer>590</integer>
                    <key>y</key>
                    <integer>118</integer>
                  </dict>
                  <dict>
                    <key>smooth</key>
                    <integer>0</integer>
                    <key>x</key>
                    <integer>480</integer>
                    <key>y</key>
                    <integer>5</integer>
                  </dict>
                  <dict>
                    <key>segmentType</key>
                    <string>curve</string>
                    <key>smooth</key>
                    <integer>1</integer>
                    <key>x</key>
                    <integer>347</integer>
                    <key>y</key>
                    <integer>5</integer>
                  </dict>
                  <dict>
                    <key>smooth</key>
                    <integer>0</integer>
                    <key>x</key>
                    <integer>215</integer>
                    <key>y</key>
                    <integer>5</integer>
                  </dict>
                  <dict>
                    <key>smooth</key>
                    <integer>0</integer>
                    <key>x</key>
                    <integer>105</integer>
                    <key>y</key>
                    <integer>110</integer>
                  </dict>
                  <dict>
                    <key>segmentType</key>
                    <string>curve</string>
                    <key>smooth</key>
                    <integer>1</integer>
                    <key>x</key>
                    <integer>105</integer>
                    <key>y</key>
                    <integer>270</integer>
                  </dict>
                  <dict>
                    <key>smooth</key>
                    <integer>0</integer>
                    <key>x</key>
                    <integer>105</integer>
                    <key>y</key>
                    <integer>430</integer>
                  </dict>
                  <dict>
                    <key>smooth</key>
                    <integer>0</integer>
                    <key>x</key>
                    <integer>215</integer>
                    <key>y</key>
                    <integer>536</integer>
                  </dict>
                  <dict>
                    <key>segmentType</key>
                    <string>curve</string>
                    <key>smooth</key>
                    <integer>1</integer>
                    <key>x</key>
                    <integer>347</integer>
                    <key>y</key>
                    <integer>536</integer>
                  </dict>
                  <dict>
                    <key>smooth</key>
                    <integer>0</integer>
                    <key>x</key>
                    <integer>480</integer>
                    <key>y</key>
                    <integer>536</integer>
                  </dict>
                  <dict>
                    <key>smooth</key>
                    <integer>0</integer>
                    <key>x</key>
                    <integer>590</integer>
                    <key>y</key>
                    <integer>438</integer>
                  </dict>
                </array>
              </dict>
            </array>
            <key>lib</key>
            <dict>
            </dict>
            <key>name</key>
            <string>b</string>
            <key>unicodes</key>
            <array>
            </array>
            <key>width</key>
            <integer>671</integer>
          </dict>
        </dict>
        <key>com.typesupply.AccentFactory.yCoordinates</key>
        <dict>
          <key>bottom</key>
          <dict>
            <key>name</key>
            <string>origin</string>
            <key>type</key>
            <string>glyphMetric</string>
          </dict>
          <key>top</key>
          <dict>
            <key>name</key>
            <string>ascender</string>
            <key>type</key>
            <string>fontInfo</string>
          </dict>
        </dict>
      </dict>
    </dict>
  </lib>
</glyph>
