<?xml version='1.0' encoding='UTF-8'?>
<glyph name="c_h" format="1">
  <advance width="1013"/>
  <unicode hex="F1510"/>
  <outline>
    <contour>
      <point x="38" y="448"/>
      <point x="38" y="276" type="curve" smooth="yes"/>
      <point x="38" y="103"/>
      <point x="150" y="-9"/>
      <point x="308" y="-9" type="curve" smooth="yes"/>
      <point x="443" y="-9"/>
      <point x="531" y="66"/>
      <point x="562" y="174" type="curve"/>
      <point x="439" y="174" type="line"/>
      <point x="418" y="117"/>
      <point x="376" y="87"/>
      <point x="308" y="87" type="curve" smooth="yes"/>
      <point x="216" y="87"/>
      <point x="155" y="155"/>
      <point x="155" y="276" type="curve" smooth="yes"/>
      <point x="155" y="396"/>
      <point x="216" y="464"/>
      <point x="308" y="464" type="curve" smooth="yes"/>
      <point x="376" y="464"/>
      <point x="439" y="432"/>
      <point x="439" y="337" type="curve" smooth="yes"/>
      <point x="439" y="328" type="line"/>
      <point x="562" y="377" type="line"/>
      <point x="531" y="493"/>
      <point x="443" y="560"/>
      <point x="308" y="560" type="curve" smooth="yes"/>
      <point x="150" y="560"/>
    </contour>
    <contour>
      <point x="439" y="740" type="line"/>
      <point x="439" y="319" type="line"/>
      <point x="553" y="319" type="line"/>
      <point x="553" y="740" type="line"/>
    </contour>
    <contour>
      <point x="830" y="308" type="curve" smooth="yes"/>
      <point x="830" y="0" type="line"/>
      <point x="943" y="0" type="line"/>
      <point x="943" y="325" type="line" smooth="yes"/>
      <point x="943" y="479"/>
      <point x="847" y="560"/>
      <point x="724" y="560" type="curve" smooth="yes"/>
      <point x="628" y="560"/>
      <point x="547" y="510"/>
      <point x="523" y="432" type="curve"/>
      <point x="553" y="318" type="line"/>
      <point x="553" y="409"/>
      <point x="608" y="461"/>
      <point x="692" y="461" type="curve" smooth="yes"/>
      <point x="775" y="461"/>
      <point x="830" y="409"/>
    </contour>
    <contour>
      <point x="301" y="0" type="move" name="bottom"/>
    </contour>
    <contour>
      <point x="301" y="551" type="move" name="top"/>
    </contour>
  </outline>
  <lib>
    <dict>
      <key>com.schriftgestaltung.Glyphs.lastChange</key>
      <string>2022-04-11 08:42:21 +0000</string>
      <key>com.schriftgestaltung.Glyphs.leftMetricsKey</key>
      <string>c</string>
      <key>com.schriftgestaltung.Glyphs.rightMetricsKey</key>
      <string>h</string>
      <key>public.markColor</key>
      <string>0.04,0.57,0.04,0.5</string>
    </dict>
  </lib>
</glyph>
