<?xml version='1.0' encoding='UTF-8'?>
<glyph name="Lcaron" format="1">
  <advance width="463"/>
  <unicode hex="013D"/>
  <outline>
    <contour>
      <point x="400" y="695" type="curve"/>
      <point x="297" y="695" type="line"/>
      <point x="297" y="599" type="line"/>
      <point x="350" y="599" type="line"/>
      <point x="350" y="578" type="line" smooth="yes"/>
      <point x="350" y="540"/>
      <point x="335" y="521"/>
      <point x="302" y="521" type="curve"/>
      <point x="302" y="471" type="line"/>
      <point x="376" y="471"/>
      <point x="414" y="513"/>
      <point x="414" y="596" type="curve" smooth="yes"/>
      <point x="414" y="625"/>
      <point x="410" y="658"/>
    </contour>
    <component base="L"/>
    <contour>
      <point x="352" y="741" type="move" name="_bottom"/>
    </contour>
  </outline>
  <lib>
    <dict>
      <key>com.schriftgestaltung.Glyphs.lastChange</key>
      <string>2022-02-17 13:53:55 +0000</string>
      <key>com.schriftgestaltung.glyph.userData</key>
      <dict>
        <key>com.schriftgestaltung.Glyphs.ColorIndex</key>
        <integer>8</integer>
        <key>com.typesupply.AccentFactory.compileType</key>
        <string>manual</string>
      </dict>
    </dict>
  </lib>
</glyph>
