<?xml version='1.0' encoding='UTF-8'?>
<glyph name="wcircumflex" format="1">
  <advance width="1131"/>
  <unicode hex="0175"/>
  <outline>
    <component base="w"/>
    <component base="circumflex" xOffset="825"/>
  </outline>
  <lib>
    <dict>
      <key>com.schriftgestaltung.Glyphs.lastChange</key>
      <string>2022-04-10 15:06:39 +0000</string>
      <key>public.markColor</key>
      <string>0.85,0.26,0.06,0.5</string>
    </dict>
  </lib>
</glyph>
