<?xml version='1.0' encoding='UTF-8'?>
<glyph name="fraction" format="1">
  <advance width="555"/>
  <unicode hex="2044"/>
  <outline>
    <contour>
      <point x="346" y="711" type="line"/>
      <point x="-27" y="0" type="line"/>
      <point x="185" y="0" type="line"/>
      <point x="558" y="711" type="line"/>
    </contour>
  </outline>
  <lib>
    <dict>
      <key>com.schriftgestaltung.Glyphs.lastChange</key>
      <string>2022-04-14 09:43:24 +0000</string>
      <key>com.schriftgestaltung.glyph.userData</key>
      <dict>
        <key>com.schriftgestaltung.Glyphs.ColorIndex</key>
        <integer>4</integer>
      </dict>
    </dict>
  </lib>
</glyph>
