<?xml version='1.0' encoding='UTF-8'?>
<glyph name="Rcaron.ss07" format="1">
  <advance width="670"/>
  <outline>
    <component base="R.ss07"/>
    <component base="caron" xOffset="149" yOffset="147"/>
  </outline>
  <lib>
    <dict>
      <key>com.schriftgestaltung.Glyphs.lastChange</key>
      <string>2022-04-10 13:51:38 +0000</string>
      <key>com.schriftgestaltung.glyph.userData</key>
      <dict>
        <key>com.schriftgestaltung.Glyphs.ColorIndex</key>
        <integer>8</integer>
      </dict>
      <key>public.markColor</key>
      <string>0.5,0.09,0.79,0.5</string>
    </dict>
  </lib>
</glyph>
